506 = {

    # Misc
    culture = ourdi
    religion = cult_of_the_dame

    # History
}

507 = {

    # Misc
    culture = ourdi
    religion = cult_of_the_dame

    # History
}

508 = {

    # Misc
    culture = ourdi
    religion = cult_of_the_dame

    # History
}

509 = {

    # Misc
    culture = ourdi
    religion = cult_of_the_dame

    # History
}

510 = {

    # Misc
    culture = ourdi
    religion = cult_of_the_dame

    # History
}

511 = {

    # Misc
    culture = ourdi
    religion = cult_of_the_dame

    # History
}

512 = {

    # Misc
    culture = ourdi
    religion = cult_of_the_dame

    # History
}

513 = {

    # Misc
    culture = ourdi
    religion = cult_of_the_dame

    # History
}

514 = {

    # Misc
    culture = ourdi
    religion = cult_of_the_dame

    # History
}

515 = {

    # Misc
    culture = ourdi
    religion = cult_of_the_dame

    # History
}